…
If you want to get the the conditional standard deviations (std.error)
for the random coefficients to construct confidence intervals, use
`broom.mixed::tidy`. Again, these are not technically the same as
conditional standard errors you get in a Bayesian Model. The `ran_vals`
argument also just gives you offsets from the fixed effects, so you have
to add them to the fixed effect to get the individual-level coefficient.

``` r
broom.mixed::tidy(forage_risk_slopes_both, effects = "ran_vals")
```

    ## # A tibble: 68 × 7
    ##    effect   component group  level term        estimate std.error
    ##    <chr>    <chr>     <chr>  <chr> <chr>          <dbl>     <dbl>
    ##  1 ran_vals cond      elkuid 2     (Intercept)    -9.90      243.
    ##  2 ran_vals cond      elkuid 5     (Intercept)   -11.2       243.
    ##  3 ran_vals cond      elkuid 25    (Intercept)    -9.83      243.
    ##  4 ran_vals cond      elkuid 29    (Intercept)   -11.6       243.
    ##  5 ran_vals cond      elkuid 42    (Intercept)    -8.83      243.
    ##  6 ran_vals cond      elkuid 56    (Intercept)    -8.82      243.
    ##  7 ran_vals cond      elkuid 59    (Intercept)    -8.01      243.
    ##  8 ran_vals cond      elkuid 73    (Intercept)    -8.68      243.
    ##  9 ran_vals cond      elkuid 74    (Intercept)    -8.64      243.
    ## 10 ran_vals cond      elkuid 78    (Intercept)    -7.64      243.
    ## # … with 58 more rows
…
``` r
forage_for_predict_population <-
  tibble(elkuid = NA,
         totalherb = seq(min(elk2$totalherb), max(elk2$totalherb), len=100),
         totalherb2 = totalherb^2,
         totalherb_sc = as.numeric(scale(totalherb)),
         totalherb2_sc = as.numeric(scale(totalherb2)),
         log_risk_sc = 0,
         w = NA) 

forage_for_predict_population
```

    ## # A tibble: 100 × 7
    ##    elkuid totalherb totalherb2 totalherb_sc totalherb2_sc log_risk_sc w    
    ##    <lgl>      <dbl>      <dbl>        <dbl>         <dbl>       <dbl> <lgl>
    ##  1 NA          0          0           -1.71         -1.11           0 NA   
    ##  2 NA          2.26       5.12        -1.67         -1.11           0 NA   
    ##  3 NA          4.53      20.5         -1.64         -1.10           0 NA   
    ##  4 NA          6.79      46.1         -1.60         -1.10           0 NA   
    ##  5 NA          9.05      81.9         -1.57         -1.10           0 NA   
    ##  6 NA         11.3      128.          -1.53         -1.10           0 NA   
    ##  7 NA         13.6      184.          -1.50         -1.09           0 NA   
    ##  8 NA         15.8      251.          -1.46         -1.09           0 NA   
    ##  9 NA         18.1      328.          -1.43         -1.08           0 NA   
    ## 10 NA         20.4      415.          -1.40         -1.08           0 NA   
    ## # … with 90 more rows
…
pred_CI(forage_risk_slopes_both_UNFIXED, forage_for_predict_population)
```

    ## # A tibble: 100 × 10
    ##    elkuid totalherb totalh…¹ total…² total…³ log_r…⁴ w      pred conf.…⁵ conf.…⁶
    ##    <lgl>      <dbl>    <dbl>   <dbl>   <dbl>   <dbl> <lgl> <dbl>   <dbl>   <dbl>
    ##  1 NA          0        0      -1.71   -1.11       0 NA    0.386  0.0419    3.56
    ##  2 NA          2.26     5.12   -1.67   -1.11       0 NA    0.423  0.0465    3.84
    ##  3 NA          4.53    20.5    -1.64   -1.10       0 NA    0.461  0.0515    4.13
    ##  4 NA          6.79    46.1    -1.60   -1.10       0 NA    0.502  0.0570    4.42
    ##  5 NA          9.05    81.9    -1.57   -1.10       0 NA    0.545  0.0629    4.72
    ##  6 NA         11.3    128.     -1.53   -1.10       0 NA    0.591  0.0694    5.03
    ##  7 NA         13.6    184.     -1.50   -1.09       0 NA    0.639  0.0764    5.35
    ##  8 NA         15.8    251.     -1.46   -1.09       0 NA    0.690  0.0841    5.66
    ##  9 NA         18.1    328.     -1.43   -1.08       0 NA    0.743  0.0924    5.98
    ## 10 NA         20.4    415.     -1.40   -1.08       0 NA    0.799  0.101     6.30
    ## # … with 90 more rows, and abbreviated variable names ¹​totalherb2,
    ## #   ²​totalherb_sc, ³​totalherb2_sc, ⁴​log_risk_sc, ⁵​conf.low, ⁶​conf.high
…
for_predict_ind
```

    ## # A tibble: 1,700 × 7
    ##    elkuid totalherb totalherb2 totalherb_sc totalherb2_sc log_risk w    
    ##    <fct>      <dbl>      <dbl>        <dbl>         <dbl>    <dbl> <lgl>
    ##  1 73          0          0           -1.55        -0.937        0 NA   
    ##  2 73          1.34       1.80        -1.53        -0.937        0 NA   
    ##  3 73          2.69       7.22        -1.50        -0.936        0 NA   
    ##  4 73          4.03      16.2         -1.47        -0.935        0 NA   
    ##  5 73          5.37      28.9         -1.45        -0.934        0 NA   
    ##  6 73          6.72      45.1         -1.42        -0.932        0 NA   
    ##  7 73          8.06      65.0         -1.39        -0.930        0 NA   
    ##  8 73          9.40      88.4         -1.37        -0.927        0 NA   
    ##  9 73         10.7      116.          -1.34        -0.924        0 NA   
    ## 10 73         12.1      146.          -1.32        -0.921        0 NA   
    ## # … with 1,690 more rows
…
